oledm204.c:18:6:InitDisplay	16	static
oledm204.c:35:6:ResetDisplay	8	static
oledm204.c:48:6:ClearDisplay	16	static
oledm204.c:58:6:SetContrast	16	static
oledm204.c:71:6:SetView	16	static
oledm204.c:82:6:SetROM	16	static
oledm204.c:94:6:ControlDisplay	16	static
oledm204.c:106:6:FadeOffMode	16	static
oledm204.c:125:6:DefineCharacter	32	static
oledm204.c:139:6:WriteString	40	static
oledm204.c:163:6:WriteStringPosition	24	static
oledm204.c:172:6:WriteChar	16	static
oledm204.c:180:6:SetPosition	24	static
oledm204.c:196:13:WriteIns	40	static
oledm204.c:212:13:WriteData	40	static
